%YAML 1.1
%TAG !u! tag:unity3d.com,2011:
--- !u!74 &7400000
AnimationClip:
  m_ObjectHideFlags: 0
  m_CorrespondingSourceObject: {fileID: 0}
  m_PrefabInstance: {fileID: 0}
  m_PrefabAsset: {fileID: 0}
  m_Name: Swordllamaster_slash1_Ready
  serializedVersion: 6
  m_Legacy: 0
  m_Compressed: 0
  m_UseHighQualityCurve: 1
  m_RotationCurves: []
  m_CompressedRotationCurves: []
  m_EulerCurves: []
  m_PositionCurves: []
  m_ScaleCurves: []
  m_FloatCurves: []
  m_PPtrCurves:
  - curve:
    - time: 0
      value: {fileID: -8276147510574534247, guid: 95ee32279400be94aba785a9d8a353ed, type: 3}
    - time: 0.09090909
      value: {fileID: -3263108632296143313, guid: 95ee32279400be94aba785a9d8a353ed, type: 3}
    - time: 0.18181819
      value: {fileID: 3940801245316568090, guid: 95ee32279400be94aba785a9d8a353ed, type: 3}
    - time: 0.27272728
      value: {fileID: -2912696173733202527, guid: 95ee32279400be94aba785a9d8a353ed, type: 3}
    - time: 0.36363637
      value: {fileID: 4142225592373814776, guid: 95ee32279400be94aba785a9d8a353ed, type: 3}
    - time: 0.45454547
      value: {fileID: 2698611234735699194, guid: 95ee32279400be94aba785a9d8a353ed, type: 3}
    attribute: m_Sprite
    path: 
    classID: 212
    script: {fileID: 0}
  m_SampleRate: 11
  m_WrapMode: 0
  m_Bounds:
    m_Center: {x: 0, y: 0, z: 0}
    m_Extent: {x: 0, y: 0, z: 0}
  m_ClipBindingConstant:
    genericBindings:
    - serializedVersion: 2
      path: 0
      attribute: 0
      script: {fileID: 0}
      typeID: 212
      customType: 23
      isPPtrCurve: 1
    pptrCurveMapping:
    - {fileID: -8276147510574534247, guid: 95ee32279400be94aba785a9d8a353ed, type: 3}
    - {fileID: -3263108632296143313, guid: 95ee32279400be94aba785a9d8a353ed, type: 3}
    - {fileID: 3940801245316568090, guid: 95ee32279400be94aba785a9d8a353ed, type: 3}
    - {fileID: -2912696173733202527, guid: 95ee32279400be94aba785a9d8a353ed, type: 3}
    - {fileID: 4142225592373814776, guid: 95ee32279400be94aba785a9d8a353ed, type: 3}
    - {fileID: 2698611234735699194, guid: 95ee32279400be94aba785a9d8a353ed, type: 3}
  m_AnimationClipSettings:
    serializedVersion: 2
    m_AdditiveReferencePoseClip: {fileID: 0}
    m_AdditiveReferencePoseTime: 0
    m_StartTime: 0
    m_StopTime: 0.54545456
    m_OrientationOffsetY: 0
    m_Level: 0
    m_CycleOffset: 0
    m_HasAdditiveReferencePose: 0
    m_LoopTime: 0
    m_LoopBlend: 0
    m_LoopBlendOrientation: 0
    m_LoopBlendPositionY: 0
    m_LoopBlendPositionXZ: 0
    m_KeepOriginalOrientation: 0
    m_KeepOriginalPositionY: 1
    m_KeepOriginalPositionXZ: 0
    m_HeightFromFeet: 0
    m_Mirror: 0
  m_EditorCurves: []
  m_EulerEditorCurves: []
  m_HasGenericRootTransform: 0
  m_HasMotionFloatCurves: 0
  m_Events:
  - time: 0.54545456
    functionName: AnimationSwitch
    data: 
    objectReferenceParameter: {fileID: 0}
    floatParameter: 0
    intParameter: 0
    messageOptions: 0
