%YAML 1.1
%TAG !u! tag:unity3d.com,2011:
--- !u!74 &7400000
AnimationClip:
  m_ObjectHideFlags: 0
  m_CorrespondingSourceObject: {fileID: 0}
  m_PrefabInstance: {fileID: 0}
  m_PrefabAsset: {fileID: 0}
  m_Name: Swordllamaster_slash2_Ready
  serializedVersion: 6
  m_Legacy: 0
  m_Compressed: 0
  m_UseHighQualityCurve: 1
  m_RotationCurves: []
  m_CompressedRotationCurves: []
  m_EulerCurves: []
  m_PositionCurves: []
  m_ScaleCurves: []
  m_FloatCurves: []
  m_PPtrCurves:
  - curve:
    - time: 0
      value: {fileID: -249332768207130019, guid: 0cc66d08b5d94ee4b8c24d2a56278895, type: 3}
    - time: 0.07692308
      value: {fileID: 7490679324461900471, guid: 0cc66d08b5d94ee4b8c24d2a56278895, type: 3}
    - time: 0.15384616
      value: {fileID: 4968472812695685532, guid: 0cc66d08b5d94ee4b8c24d2a56278895, type: 3}
    - time: 0.23076923
      value: {fileID: 256817042661148170, guid: 0cc66d08b5d94ee4b8c24d2a56278895, type: 3}
    - time: 0.30769232
      value: {fileID: -6779392173281956975, guid: 0cc66d08b5d94ee4b8c24d2a56278895, type: 3}
    - time: 0.3846154
      value: {fileID: 2471738932446483864, guid: 0cc66d08b5d94ee4b8c24d2a56278895, type: 3}
    - time: 0.46153846
      value: {fileID: -8359485027943147278, guid: 0cc66d08b5d94ee4b8c24d2a56278895, type: 3}
    - time: 0.53846157
      value: {fileID: -3119068245967907457, guid: 0cc66d08b5d94ee4b8c24d2a56278895, type: 3}
    - time: 0.61538464
      value: {fileID: 5501793097207347226, guid: 0cc66d08b5d94ee4b8c24d2a56278895, type: 3}
    attribute: m_Sprite
    path: 
    classID: 212
    script: {fileID: 0}
  m_SampleRate: 13
  m_WrapMode: 0
  m_Bounds:
    m_Center: {x: 0, y: 0, z: 0}
    m_Extent: {x: 0, y: 0, z: 0}
  m_ClipBindingConstant:
    genericBindings:
    - serializedVersion: 2
      path: 0
      attribute: 0
      script: {fileID: 0}
      typeID: 212
      customType: 23
      isPPtrCurve: 1
    pptrCurveMapping:
    - {fileID: -249332768207130019, guid: 0cc66d08b5d94ee4b8c24d2a56278895, type: 3}
    - {fileID: 7490679324461900471, guid: 0cc66d08b5d94ee4b8c24d2a56278895, type: 3}
    - {fileID: 4968472812695685532, guid: 0cc66d08b5d94ee4b8c24d2a56278895, type: 3}
    - {fileID: 256817042661148170, guid: 0cc66d08b5d94ee4b8c24d2a56278895, type: 3}
    - {fileID: -6779392173281956975, guid: 0cc66d08b5d94ee4b8c24d2a56278895, type: 3}
    - {fileID: 2471738932446483864, guid: 0cc66d08b5d94ee4b8c24d2a56278895, type: 3}
    - {fileID: -8359485027943147278, guid: 0cc66d08b5d94ee4b8c24d2a56278895, type: 3}
    - {fileID: -3119068245967907457, guid: 0cc66d08b5d94ee4b8c24d2a56278895, type: 3}
    - {fileID: 5501793097207347226, guid: 0cc66d08b5d94ee4b8c24d2a56278895, type: 3}
  m_AnimationClipSettings:
    serializedVersion: 2
    m_AdditiveReferencePoseClip: {fileID: 0}
    m_AdditiveReferencePoseTime: 0
    m_StartTime: 0
    m_StopTime: 0.6923077
    m_OrientationOffsetY: 0
    m_Level: 0
    m_CycleOffset: 0
    m_HasAdditiveReferencePose: 0
    m_LoopTime: 0
    m_LoopBlend: 0
    m_LoopBlendOrientation: 0
    m_LoopBlendPositionY: 0
    m_LoopBlendPositionXZ: 0
    m_KeepOriginalOrientation: 0
    m_KeepOriginalPositionY: 1
    m_KeepOriginalPositionXZ: 0
    m_HeightFromFeet: 0
    m_Mirror: 0
  m_EditorCurves: []
  m_EulerEditorCurves: []
  m_HasGenericRootTransform: 0
  m_HasMotionFloatCurves: 0
  m_Events:
  - time: 0.6923077
    functionName: AnimationSwitch
    data: 
    objectReferenceParameter: {fileID: 0}
    floatParameter: 0
    intParameter: 0
    messageOptions: 0
