%YAML 1.1
%TAG !u! tag:unity3d.com,2011:
--- !u!74 &7400000
AnimationClip:
  m_ObjectHideFlags: 0
  m_CorrespondingSourceObject: {fileID: 0}
  m_PrefabInstance: {fileID: 0}
  m_PrefabAsset: {fileID: 0}
  m_Name: Swordllamaster_Shot2_Ready
  serializedVersion: 6
  m_Legacy: 0
  m_Compressed: 0
  m_UseHighQualityCurve: 1
  m_RotationCurves: []
  m_CompressedRotationCurves: []
  m_EulerCurves: []
  m_PositionCurves: []
  m_ScaleCurves: []
  m_FloatCurves: []
  m_PPtrCurves:
  - curve:
    - time: 0
      value: {fileID: -7176024957852768799, guid: 3a3461a3dcf29324f87dfd78af75977a, type: 3}
    - time: 0.09090909
      value: {fileID: 7143197682715166326, guid: 3a3461a3dcf29324f87dfd78af75977a, type: 3}
    - time: 0.18181819
      value: {fileID: -7748439084025801833, guid: 3a3461a3dcf29324f87dfd78af75977a, type: 3}
    - time: 0.27272728
      value: {fileID: -4016346585230460331, guid: 3a3461a3dcf29324f87dfd78af75977a, type: 3}
    - time: 0.36363637
      value: {fileID: 9091993855656253893, guid: 3a3461a3dcf29324f87dfd78af75977a, type: 3}
    - time: 0.45454547
      value: {fileID: 5642036216203312812, guid: 3a3461a3dcf29324f87dfd78af75977a, type: 3}
    - time: 0.54545456
      value: {fileID: 8221888541766712349, guid: 3a3461a3dcf29324f87dfd78af75977a, type: 3}
    - time: 0.6363636
      value: {fileID: -8193913826123003865, guid: 3a3461a3dcf29324f87dfd78af75977a, type: 3}
    - time: 0.72727275
      value: {fileID: 789590105831414558, guid: 3a3461a3dcf29324f87dfd78af75977a, type: 3}
    attribute: m_Sprite
    path: 
    classID: 212
    script: {fileID: 0}
  m_SampleRate: 11
  m_WrapMode: 0
  m_Bounds:
    m_Center: {x: 0, y: 0, z: 0}
    m_Extent: {x: 0, y: 0, z: 0}
  m_ClipBindingConstant:
    genericBindings:
    - serializedVersion: 2
      path: 0
      attribute: 0
      script: {fileID: 0}
      typeID: 212
      customType: 23
      isPPtrCurve: 1
    pptrCurveMapping:
    - {fileID: -7176024957852768799, guid: 3a3461a3dcf29324f87dfd78af75977a, type: 3}
    - {fileID: 7143197682715166326, guid: 3a3461a3dcf29324f87dfd78af75977a, type: 3}
    - {fileID: -7748439084025801833, guid: 3a3461a3dcf29324f87dfd78af75977a, type: 3}
    - {fileID: -4016346585230460331, guid: 3a3461a3dcf29324f87dfd78af75977a, type: 3}
    - {fileID: 9091993855656253893, guid: 3a3461a3dcf29324f87dfd78af75977a, type: 3}
    - {fileID: 5642036216203312812, guid: 3a3461a3dcf29324f87dfd78af75977a, type: 3}
    - {fileID: 8221888541766712349, guid: 3a3461a3dcf29324f87dfd78af75977a, type: 3}
    - {fileID: -8193913826123003865, guid: 3a3461a3dcf29324f87dfd78af75977a, type: 3}
    - {fileID: 789590105831414558, guid: 3a3461a3dcf29324f87dfd78af75977a, type: 3}
  m_AnimationClipSettings:
    serializedVersion: 2
    m_AdditiveReferencePoseClip: {fileID: 0}
    m_AdditiveReferencePoseTime: 0
    m_StartTime: 0
    m_StopTime: 0.81818193
    m_OrientationOffsetY: 0
    m_Level: 0
    m_CycleOffset: 0
    m_HasAdditiveReferencePose: 0
    m_LoopTime: 0
    m_LoopBlend: 0
    m_LoopBlendOrientation: 0
    m_LoopBlendPositionY: 0
    m_LoopBlendPositionXZ: 0
    m_KeepOriginalOrientation: 0
    m_KeepOriginalPositionY: 1
    m_KeepOriginalPositionXZ: 0
    m_HeightFromFeet: 0
    m_Mirror: 0
  m_EditorCurves: []
  m_EulerEditorCurves: []
  m_HasGenericRootTransform: 0
  m_HasMotionFloatCurves: 0
  m_Events:
  - time: 0.8181818
    functionName: AnimationSwitch
    data: 
    objectReferenceParameter: {fileID: 0}
    floatParameter: 0
    intParameter: 0
    messageOptions: 0
