%YAML 1.1
%TAG !u! tag:unity3d.com,2011:
--- !u!114 &11400000
MonoBehaviour:
  m_ObjectHideFlags: 0
  m_CorrespondingSourceObject: {fileID: 0}
  m_PrefabInstance: {fileID: 0}
  m_PrefabAsset: {fileID: 0}
  m_GameObject: {fileID: 0}
  m_Enabled: 1
  m_EditorHideFlags: 0
  m_Script: {fileID: 11500000, guid: 587b08ff3c8cd2046874287db7ff3b77, type: 3}
  m_Name: BarrageShot2
  m_EditorClassIdentifier: 
  attackAnimationName: Attack
  bulletStatus:
    bullet: {fileID: 5514896801256145442, guid: e6c77eee6e401134dbd3ae502ac1717a, type: 3}
    bulletSpeed: 5
    bulletPower: 5
    reflective: 1
    fireSound: {fileID: 0}
    predict: 0
  barrageStatus:
    barrageCount: 1
    barrage_Interval: 0
    aiming: 4
    rapid: 0
    rapid_Interval: 0.22
    barrageRapid: 1
    shotAngle: 360
    numberOfBullet: 24
