%YAML 1.1
%TAG !u! tag:unity3d.com,2011:
--- !u!114 &11400000
MonoBehaviour:
  m_ObjectHideFlags: 0
  m_CorrespondingSourceObject: {fileID: 0}
  m_PrefabInstance: {fileID: 0}
  m_PrefabAsset: {fileID: 0}
  m_GameObject: {fileID: 0}
  m_Enabled: 1
  m_EditorHideFlags: 0
  m_Script: {fileID: 11500000, guid: 1fd85b3b0322a3244b1cb6cb4e7eeb18, type: 3}
  m_Name: Llamaster2
  m_EditorClassIdentifier: 
  hp: 7
  interval: 0
  aproachDistance: 2
  patterns:
  - {fileID: 11400000, guid: cda86542b00775c46b379b329a96f721, type: 2}
  - {fileID: 11400000, guid: c4fdf0c63122b354fa09a3457cb26266, type: 2}
  - {fileID: 11400000, guid: cc2cf72e0ddc0c24fabd96e125412b8d, type: 2}
  - {fileID: 11400000, guid: 0b1d925bc6f0d4f44b2b5108025b9ed5, type: 2}
  - {fileID: 11400000, guid: 1b89e97d2d108cc4a82c1d5eacf13c1b, type: 2}
  approachPatterns:
  - {fileID: 11400000, guid: 76601269384497844bcc78683b284eb8, type: 2}
