%YAML 1.1
%TAG !u! tag:unity3d.com,2011:
--- !u!114 &11400000
MonoBehaviour:
  m_ObjectHideFlags: 0
  m_CorrespondingSourceObject: {fileID: 0}
  m_PrefabInstance: {fileID: 0}
  m_PrefabAsset: {fileID: 0}
  m_GameObject: {fileID: 0}
  m_Enabled: 1
  m_EditorHideFlags: 0
  m_Script: {fileID: 11500000, guid: 1fd85b3b0322a3244b1cb6cb4e7eeb18, type: 3}
  m_Name: TestProfile
  m_EditorClassIdentifier: 
  hp: 1
  interval: 3
  aproachDistance: 1
  patterns:
  - {fileID: 11400000, guid: 7b424a46f886c204295dc34731748e9e, type: 2}
  approachPatterns: []
