%YAML 1.1
%TAG !u! tag:unity3d.com,2011:
--- !u!1045 &1
EditorBuildSettings:
  m_ObjectHideFlags: 0
  serializedVersion: 2
  m_Scenes:
  - enabled: 1
    path: Assets/Scenes/Title.unity
    guid: 495bcc7d869f3264db2448e0db6862d8
  - enabled: 1
    path: Assets/Scenes/Game Stage 1.unity
    guid: 4d8eda804c2cec2449d8ce89f575d832
  m_configObjects:
    com.unity.input.settings: {fileID: 11400000, guid: c081ee23c36068a4bb56e992cb8cf2e4, type: 2}
