%YAML 1.1
%TAG !u! tag:unity3d.com,2011:
--- !u!78 &1
TagManager:
  serializedVersion: 2
  tags:
  - slippery
  - Wall
  - AttackArea
  layers:
  - Default
  - TransparentFX
  - Ignore Raycast
  - Player
  - Water
  - UI
  - AttackArea
  - Wall
  - Bottom
  - TranslatPlatform
  - Effect
  - Enemy
  - Projectile
  - 
  - DestructibleObject
  - BG
  - 
  - 
  - 
  - 
  - 
  - 
  - 
  - 
  - 
  - 
  - 
  - 
  - 
  - 
  - 
  - 
  m_SortingLayers:
  - name: BG0
    uniqueID: 687853655
    locked: 0
  - name: BG1
    uniqueID: 2527991615
    locked: 0
  - name: BG2
    uniqueID: 17206519
    locked: 0
  - name: BG_Light
    uniqueID: 2887513989
    locked: 0
  - name: BG3
    uniqueID: 800722485
    locked: 0
  - name: Fog
    uniqueID: 1151600125
    locked: 0
  - name: Enemy
    uniqueID: 4231419525
    locked: 0
  - name: Default
    uniqueID: 0
    locked: 0
  - name: Platform
    uniqueID: 397478687
    locked: 0
  - name: Platform deco
    uniqueID: 3285195441
    locked: 0
  - name: Platform deco_Light
    uniqueID: 2471463945
    locked: 0
  - name: Dulgibot
    uniqueID: 3591016735
    locked: 0
  - name: Dulgibot_Light
    uniqueID: 1157564337
    locked: 0
  - name: BE
    uniqueID: 3304347653
    locked: 0
  - name: BE2
    uniqueID: 3672740747
    locked: 0
  - name: WE
    uniqueID: 2219745673
    locked: 0
  - name: FrontEffect_Unlighting
    uniqueID: 3162148123
    locked: 0
  - name: FG
    uniqueID: 3722400155
    locked: 0
  - name: UI
    uniqueID: 3359155289
    locked: 0
